{
    "shortid": "G3i2B3",
    "name": "Invoice",
    "folder": {
        "shortid": "cyfRSCC"
    },
    "creationDate": {
        "$$date": 1556548002483
    },
    "modificationDate": {
        "$$date": 1556548002483
    },
    "_id": "yIC7mLfjqcsujNtU",
    "$entitySet": "folders"
}